{
  "provider": {
    "host": "ipfs.infura.io",
    "__host": "localhost",
    "port": "5001",
    "opts": {
      "protocol": "https"
    }
  },
  "versions": [
    {
      "hash": "QmNyuBpBUe4vgFK1UPe5bRmVWGf7V5c1DjMAgd39nkxykz",
      "timestamp": "2017-08-15T16:23:12.017Z"
    },
    {
      "hash": "QmWYoWDGuam1gxH1d4hs2471QPPWN3dPeEU1vZnbakH3fZ",
      "timestamp": "2017-08-15T18:51:55.339Z"
    },
    {
      "hash": "QmSvZNq3vjXLMrSjaQZSrvxz2Mc5icfvZLpv4EWaY293kp",
      "timestamp": "2017-08-15T18:53:55.649Z"
    },
    {
      "hash": "QmP9KRLB5N1B669ELHfwGRMKo9GddzN7Pr8scsycMbhJjS",
      "timestamp": "2017-08-15T18:55:24.115Z"
    },
    {
      "hash": "QmVhtF8zhTf1JCS7C7fxjE5RvHQyAAv64sP22u6qfJ7xM9",
      "timestamp": "2017-08-16T20:28:41.741Z"
    }
  ],
  "path": "public"
}