<?xml version="1.0" standalone="no"?>
<!DOCTYPE svg PUBLIC "-//W3C//DTD SVG 20010904//EN"
 "http://www.w3.org/TR/2001/REC-SVG-20010904/DTD/svg10.dtd">
<svg version="1.0" xmlns="http://www.w3.org/2000/svg"
 width="796.000000pt" height="796.000000pt" viewBox="0 0 796.000000 796.000000"
 preserveAspectRatio="xMidYMid meet">
<metadata>
Created by potrace 1.11, written by Peter Selinger 2001-2013
</metadata>
<g transform="translate(0.000000,796.000000) scale(0.100000,-0.100000)"
fill="#000000" stroke="none">
<path d="M3698 7954 c-2 -1 -40 -5 -83 -8 -105 -7 -177 -14 -212 -21 -27 -5
-74 -12 -138 -20 -16 -2 -30 -4 -30 -5 0 -2 -35 -9 -70 -14 -16 -2 -57 -11
-91 -20 -33 -8 -71 -18 -85 -20 -13 -2 -24 -5 -24 -6 0 -1 -8 -3 -17 -5 -9 -2
-32 -8 -50 -14 -18 -6 -44 -12 -58 -15 -37 -6 -306 -100 -375 -130 -33 -15
-61 -27 -62 -27 -21 1 -421 -197 -443 -219 -3 -3 -18 -12 -34 -20 -16 -8 -86
-52 -155 -98 -123 -82 -126 -83 -167 -74 -44 10 -137 9 -164 -1 -8 -3 -32 -11
-52 -17 -21 -6 -38 -16 -38 -21 0 -5 -7 -9 -15 -9 -21 0 -135 -113 -135 -134
0 -9 -4 -16 -9 -16 -14 0 -44 -129 -43 -189 1 -189 174 -361 367 -364 219 -4
398 173 392 388 -2 51 1 60 23 76 14 10 30 22 35 27 56 45 444 262 469 262 7
0 17 5 23 11 26 26 431 176 522 194 12 2 25 6 29 9 5 3 19 7 33 10 13 3 80 17
149 31 69 15 134 28 145 30 45 5 131 18 148 21 9 1 54 6 100 9 45 4 102 9 127
11 89 7 470 3 470 -6 0 -3 24 -5 53 -6 64 -1 177 -14 282 -34 28 -5 66 -12 85
-15 19 -3 80 -17 135 -31 55 -14 107 -27 115 -29 8 -2 15 -4 15 -5 0 -1 9 -3
20 -5 11 -3 61 -18 110 -35 50 -16 97 -32 105 -34 50 -14 188 -72 330 -139
165 -78 460 -253 556 -330 10 -8 69 -55 129 -103 133 -106 161 -131 286 -255
146 -146 358 -404 424 -516 11 -18 23 -33 27 -33 4 0 8 -5 8 -11 0 -6 13 -29
29 -52 41 -60 93 -155 162 -291 33 -66 70 -134 84 -151 44 -58 128 -85 200
-65 85 24 146 112 139 199 -7 84 -211 463 -366 680 -59 82 -190 254 -213 277
-5 6 -39 44 -75 84 -77 87 -247 256 -321 320 -28 25 -61 53 -73 64 -12 10 -37
30 -56 45 -19 14 -44 34 -54 43 -11 10 -38 30 -60 45 -23 16 -47 34 -55 41
-20 19 -256 174 -316 207 -27 15 -84 46 -125 69 -106 59 -220 113 -395 186
-32 14 -219 82 -230 84 -5 1 -48 14 -95 29 -47 15 -94 29 -105 31 -11 3 -47
12 -80 21 -94 25 -248 56 -253 50 -3 -3 -10 -1 -16 4 -10 8 -67 18 -151 26
-16 2 -50 6 -75 9 -25 4 -70 9 -100 12 -65 6 -557 14 -562 8z"/>
<path d="M3737 6944 c-1 -1 -38 -5 -82 -8 -44 -3 -91 -8 -104 -11 -12 -2 -44
-7 -70 -10 -77 -11 -226 -40 -226 -45 0 -1 -11 -4 -25 -7 -39 -7 -55 -11 -55
-13 0 -1 -10 -3 -23 -6 -13 -2 -53 -14 -90 -26 -37 -12 -69 -23 -72 -23 -29
-8 -228 -89 -281 -116 -31 -15 -59 -25 -63 -22 -3 4 -6 1 -6 -5 0 -7 -4 -12
-9 -12 -37 0 -372 -212 -505 -320 -23 -18 -96 -80 -119 -100 -84 -74 -271
-269 -307 -320 -13 -19 -29 -39 -35 -45 -75 -67 -290 -420 -375 -615 -75 -171
-181 -505 -195 -615 -1 -11 -7 -47 -14 -80 -24 -131 -35 -284 -35 -480 1 -226
10 -335 50 -550 11 -59 55 -240 64 -260 5 -11 12 -33 16 -50 11 -45 11 -45 38
-119 14 -38 33 -82 41 -99 8 -17 15 -34 15 -39 0 -15 131 -273 141 -276 5 -2
9 -10 9 -18 0 -8 5 -22 11 -32 8 -13 6 -33 -9 -82 -43 -141 -9 -274 100 -381
40 -40 75 -64 124 -83 37 -15 73 -25 80 -22 8 3 14 2 14 -2 0 -8 57 -7 110 2
209 35 358 262 302 461 -23 81 -50 130 -100 179 -44 44 -126 93 -169 101 -10
2 -19 4 -20 5 -4 3 -35 7 -65 9 -26 1 -36 17 -110 163 -51 102 -138 317 -138
341 0 7 -3 17 -7 21 -4 3 -8 12 -9 19 -1 7 -7 32 -15 57 -15 55 -16 57 -24 99
-3 19 -8 38 -10 42 -3 4 -8 27 -11 50 -8 60 -11 78 -19 118 -19 104 -26 479
-12 606 16 136 23 185 33 218 3 11 7 29 9 40 2 12 12 60 24 107 12 47 23 93
25 102 3 9 10 26 16 37 6 12 9 21 6 21 -2 0 7 28 21 63 13 34 26 67 27 72 13
47 107 240 169 344 76 129 175 267 277 385 98 115 329 321 450 401 25 16 47
32 50 35 20 22 317 181 415 221 42 18 130 51 140 53 6 2 49 15 97 30 48 15 95
29 105 30 10 2 36 9 58 14 38 10 73 17 138 27 61 9 106 16 139 20 42 5 228 18
246 16 30 -3 39 -2 66 4 118 25 181 132 148 250 -13 46 -48 87 -95 112 -25 14
-57 18 -150 18 -65 0 -119 0 -120 -1z"/>
<path d="M5000 6848 c-75 -23 -101 -38 -158 -92 -96 -90 -136 -226 -105 -359
17 -77 53 -136 115 -192 107 -96 236 -123 370 -79 l68 23 52 -36 c368 -252
681 -635 861 -1054 45 -105 86 -215 93 -248 3 -14 7 -28 10 -33 5 -8 9 -25 20
-78 3 -14 11 -47 19 -75 8 -27 17 -68 20 -90 3 -22 9 -65 14 -95 5 -30 13 -82
17 -115 8 -69 13 -436 6 -449 -3 -5 -6 -29 -8 -54 -4 -66 -13 -126 -30 -217
-17 -88 -63 -264 -72 -280 -4 -5 -8 -19 -9 -30 -6 -33 -93 -245 -136 -330 -66
-131 -180 -316 -199 -323 -4 -2 -8 -8 -8 -14 0 -22 -145 -192 -266 -313 -105
-104 -142 -137 -259 -228 -76 -59 -287 -193 -310 -197 -5 -1 -21 -10 -35 -19
-68 -47 -377 -170 -490 -196 -14 -3 -83 -19 -135 -31 -11 -3 -31 -7 -45 -10
-14 -2 -36 -7 -50 -9 -58 -12 -72 -14 -137 -20 -37 -4 -81 -9 -98 -11 -36 -6
-333 -6 -390 0 -22 2 -65 7 -95 11 -30 4 -66 9 -80 10 -41 5 -104 16 -122 21
-10 3 -28 7 -40 10 -13 2 -34 6 -48 9 -14 4 -35 8 -48 11 -30 6 -247 78 -287
95 -16 7 -32 13 -35 14 -45 17 -84 35 -181 83 -102 51 -123 58 -168 56 -87 -4
-157 -59 -181 -142 -19 -67 10 -156 64 -197 44 -33 235 -127 357 -175 94 -37
298 -103 358 -115 9 -2 48 -10 86 -19 73 -16 108 -23 163 -31 17 -3 49 -8 70
-11 67 -10 105 -13 232 -18 69 -3 125 -6 125 -7 0 -1 62 0 100 2 11 1 31 0 45
-1 14 -1 48 1 75 4 28 3 78 8 112 11 34 3 72 8 85 10 13 2 41 6 63 10 32 4
168 32 245 50 43 9 208 59 237 71 18 8 35 14 38 14 3 0 22 7 43 16 20 9 42 17
47 18 50 12 413 193 435 216 3 3 30 21 60 40 30 19 57 38 58 42 2 5 9 8 15 8
7 0 24 11 39 25 15 14 31 25 37 25 5 0 11 4 13 8 2 4 26 25 53 46 72 54 167
139 260 231 68 68 111 116 223 250 10 11 28 36 42 55 13 19 27 37 30 40 15 14
114 168 169 262 97 170 190 380 241 548 12 41 25 82 28 90 7 21 10 32 16 58 3
13 8 32 11 42 3 10 8 29 10 42 24 121 36 190 41 233 3 27 7 56 10 63 16 52 24
416 11 574 -56 687 -352 1324 -843 1813 -135 135 -410 355 -443 355 -6 0 -12
10 -13 23 -17 253 -255 426 -488 355z"/>
<path d="M790 6290 c-76 -21 -110 -57 -202 -210 -63 -106 -177 -316 -183 -340
-1 -3 -12 -27 -25 -55 -13 -27 -25 -52 -25 -55 -1 -3 -6 -16 -12 -30 -59 -136
-154 -404 -168 -470 -2 -8 -13 -52 -24 -98 -30 -114 -61 -269 -66 -320 -2 -23
-7 -47 -10 -52 -3 -5 -8 -35 -11 -67 -3 -32 -7 -71 -10 -86 -17 -100 -25 -682
-11 -772 3 -16 8 -57 11 -90 4 -33 9 -72 11 -86 3 -13 7 -43 9 -64 3 -22 7
-49 9 -60 3 -11 8 -40 12 -65 18 -115 70 -323 123 -485 14 -44 27 -84 28 -90
6 -30 105 -268 159 -381 154 -324 364 -643 595 -905 66 -76 298 -309 341 -343
61 -49 144 -122 147 -128 2 -5 8 -8 13 -8 5 0 23 -12 39 -27 52 -46 274 -197
397 -270 115 -69 375 -204 399 -207 7 -1 18 -7 26 -13 7 -6 26 -15 41 -18 15
-4 30 -11 33 -16 3 -5 13 -9 23 -9 9 0 37 -9 60 -21 24 -11 51 -22 60 -24 9
-2 32 -10 52 -19 20 -8 39 -12 43 -9 3 4 6 1 6 -5 0 -7 3 -11 8 -10 4 1 27 -5
52 -12 25 -8 47 -14 50 -15 3 -1 25 -7 50 -14 25 -6 52 -15 60 -18 8 -3 23 -8
34 -10 10 -2 56 -12 102 -24 46 -11 96 -22 111 -24 15 -2 28 -4 28 -5 0 -1 14
-4 30 -6 17 -3 53 -9 80 -14 28 -6 66 -12 85 -14 19 -2 58 -7 87 -11 28 -3 76
-8 105 -11 175 -14 169 -13 191 -41 33 -43 94 -97 130 -115 72 -36 96 -42 187
-42 102 -1 182 31 255 101 229 221 110 597 -205 650 -119 20 -235 -22 -332
-120 l-57 -57 -63 5 c-141 12 -144 12 -273 31 -113 16 -190 31 -270 51 -33 8
-69 17 -80 19 -35 7 -168 47 -250 76 -44 16 -84 30 -90 32 -5 2 -23 8 -38 14
-16 7 -31 12 -33 12 -3 0 -30 11 -60 25 -30 14 -56 25 -59 25 -8 0 -191 89
-198 96 -4 5 -13 9 -20 10 -36 6 -411 244 -506 321 -162 132 -234 196 -351
314 -74 74 -142 144 -150 155 -8 10 -48 58 -87 106 -40 47 -87 108 -105 135
-17 26 -35 50 -39 53 -21 16 -255 400 -243 400 3 0 -3 12 -14 28 -10 15 -26
43 -34 62 -9 19 -28 60 -41 90 -65 142 -185 475 -179 497 0 1 -6 24 -14 50 -8
27 -22 82 -30 123 -9 41 -18 84 -20 95 -3 11 -7 34 -9 50 -3 17 -7 41 -10 55
-3 14 -8 45 -10 70 -3 25 -8 61 -11 80 -33 214 -32 589 3 850 3 25 7 56 8 70
2 23 17 105 30 170 3 14 8 39 10 55 3 17 8 38 11 47 3 9 7 26 9 37 3 12 7 29
9 39 22 98 98 335 109 343 5 3 8 8 6 10 -1 2 0 13 3 24 2 11 6 23 6 28 1 4 11
24 22 44 11 21 20 41 20 46 0 24 187 399 203 405 4 2 7 8 7 13 0 6 17 36 38
67 82 124 100 190 69 262 -8 19 -25 46 -39 60 -28 29 -95 66 -104 57 -3 -3
-16 -2 -28 2 -11 4 -32 5 -46 1z"/>
<path d="M3807 5934 c-1 -1 -29 -4 -62 -8 -33 -3 -71 -8 -85 -10 -14 -3 -43
-7 -65 -11 -131 -19 -339 -87 -495 -162 -98 -47 -310 -180 -310 -195 0 -4 -5
-8 -10 -8 -47 0 -387 -373 -432 -472 -7 -16 -16 -28 -19 -28 -5 0 -114 -213
-140 -275 -56 -131 -111 -370 -125 -537 -38 -467 96 -918 383 -1293 83 -108
215 -239 349 -345 108 -86 332 -209 472 -259 78 -28 212 -69 250 -75 37 -7 88
-16 110 -21 124 -24 504 -24 581 0 9 2 34 7 56 11 101 15 368 99 419 131 6 4
13 8 16 8 13 1 161 82 213 116 32 21 61 39 63 39 3 0 11 6 18 13 7 6 28 23 46
37 171 127 348 321 463 508 57 92 147 273 147 295 0 7 4 17 9 23 13 13 67 196
85 285 14 70 22 125 31 219 4 35 8 231 5 240 -1 3 -3 33 -5 68 -4 69 -8 94
-36 242 -6 30 -13 62 -16 70 -3 8 -8 24 -10 35 -19 100 -131 352 -216 485
-114 180 -292 375 -442 486 -44 32 -82 61 -85 65 -11 13 -180 109 -240 137
-118 54 -134 61 -215 88 -202 67 -373 95 -597 98 -60 1 -110 1 -111 0z m243
-439 c47 -4 87 -8 90 -10 3 -2 26 -6 50 -10 180 -27 416 -132 589 -262 97 -73
271 -248 271 -272 0 -6 4 -11 8 -11 13 0 106 -150 150 -240 40 -85 90 -222 98
-270 3 -14 7 -32 10 -40 3 -8 8 -33 11 -55 3 -22 8 -59 12 -81 5 -23 7 -106 5
-185 -3 -160 -3 -154 -16 -224 -5 -27 -11 -61 -14 -75 -3 -14 -12 -50 -21 -80
-9 -30 -17 -57 -18 -60 0 -3 -11 -31 -23 -62 -75 -198 -218 -404 -378 -546
-72 -64 -177 -142 -191 -142 -7 0 -13 -4 -13 -8 0 -16 -267 -142 -300 -142 -9
0 -20 -3 -24 -7 -3 -4 -13 -8 -20 -9 -7 -1 -38 -9 -67 -17 -30 -9 -79 -19
-109 -22 -30 -4 -58 -9 -63 -12 -4 -2 -74 -4 -155 -5 -138 0 -277 16 -360 41
-18 5 -36 10 -40 10 -54 5 -310 120 -387 173 -178 126 -272 216 -383 366 -34
46 -62 88 -62 92 0 5 -6 15 -13 22 -15 16 -98 195 -120 258 -18 52 -38 126
-43 155 -1 11 -9 53 -17 93 -14 73 -16 350 -3 420 3 17 8 44 11 60 2 15 9 47
16 72 6 25 12 52 14 60 2 8 4 16 5 18 2 1 3 5 4 10 4 17 18 58 26 77 27 67
104 225 109 225 3 0 12 12 19 28 57 127 325 387 492 478 19 10 37 21 40 24 12
12 132 65 205 90 133 46 235 67 370 76 50 3 91 7 92 8 3 2 13 2 143 -9z"/>
<path d="M7449 4955 c-108 -38 -186 -105 -230 -200 -44 -94 -52 -171 -28 -255
7 -25 13 -47 14 -50 10 -48 92 -141 163 -187 l54 -34 -6 -217 c-3 -119 -8
-235 -10 -257 -13 -119 -22 -190 -26 -190 -1 0 -8 -56 -14 -117 -2 -20 -6 -41
-9 -46 -4 -5 -9 -24 -12 -43 -21 -126 -109 -412 -182 -593 -42 -103 -161 -355
-173 -366 -3 -3 -11 -16 -18 -30 -31 -64 -171 -283 -184 -288 -4 -2 -8 -8 -8
-13 0 -7 -96 -140 -140 -192 -137 -165 -307 -342 -425 -441 -38 -33 -72 -62
-75 -66 -9 -12 -205 -157 -265 -196 -33 -21 -62 -41 -65 -44 -3 -3 -27 -19
-55 -35 -27 -17 -58 -34 -67 -40 -139 -84 -372 -197 -496 -240 -94 -34 -148
-97 -156 -182 -12 -139 130 -243 264 -193 25 9 54 21 65 25 11 5 22 9 25 10 3
1 18 7 33 13 16 7 33 12 38 12 5 0 9 4 9 8 0 5 6 9 13 9 18 0 214 97 346 171
99 55 367 226 381 243 3 3 31 24 62 47 164 120 448 387 579 542 30 36 59 69
65 75 6 5 33 39 60 75 27 36 52 66 57 68 4 2 7 8 7 13 0 8 16 29 45 63 37 41
255 397 255 415 0 6 5 11 10 11 6 0 10 9 10 20 0 11 3 20 8 20 4 0 14 15 21
33 8 17 36 77 61 132 41 88 59 127 65 145 2 7 24 62 32 80 3 8 7 17 8 20 1 3
7 17 13 32 14 33 101 307 106 334 2 10 13 55 25 99 11 44 22 91 24 105 3 14 8
36 11 50 7 30 15 75 21 113 2 15 7 45 10 67 12 83 15 101 31 255 3 33 7 172 9
308 l2 248 25 27 c73 78 108 172 103 275 -4 87 -4 88 -37 157 -30 62 -121 155
-162 166 -14 3 -26 9 -26 13 0 13 -106 32 -167 30 -32 -1 -74 -8 -94 -14z"/>
</g>
</svg>
